svm
…
# Now we pivot the dataset back wider to make each word a feature with its value as a count for each text in the dataset
rewrite_paras_wider = id_source_word_count |>
  pivot_wider(
    id_cols = c(id, source),
    names_from  = word,
    values_from = n,
    values_fill = 0,
    names_prefix  = "c_"
  )
print(rewrite_paras_wider)

# A tibble: 800 x 3
   id    source         text                                                    
   <chr> <chr>          <chr>                                                   
 1 0     human          "Cars. Cars have been around since they became famous i~
 2 0     gpt3.5         "Cars have been a significant part of our daily lives s~
 3 0     gpt4.1         "For over a century, cars have been a staple of everyda~
 4 0     gpt4.1_ashuman "Cars have become a huge part of our everyday lives sin~
 5 1     human          "Transportation is a large necessity in most countries ~
 6 1     gpt3.5         "Transportation is a vital aspect of daily life in most~
 7 1     gpt4.1         "Transportation is essential in most countries around t~
 8 1     gpt4.1_ashuman "Transportation is essential in most places around the ~
 9 2     human          "Americas love affair with its vehicles seems to be coo~
10 2     gpt3.5         "Elisabeth Rosenthal suggests that Americas infatuation~
# i 790 more rows
# A tibble: 96,966 x 4
   id    source word         n
   <chr> <chr>  <chr>    <int>
 1 0     gpt3.5 12           1
 2 0     gpt3.5 1900s        1
 3 0     gpt3.5 50           1
 4 0     gpt3.5 altern       2
 5 0     gpt3.5 american     1
 6 0     gpt3.5 andrew       1
 7 0     gpt3.5 articl       2
 8 0     gpt3.5 ban          1
 9 0     gpt3.5 bike         1
10 0     gpt3.5 bogota       1
# i 96,956 more rows
# A tibble: 800 x 5,132
   id    source   c_12 c_1900s  c_50 c_altern c_american c_andrew c_articl c_ban
   <chr> <chr>   <int>   <int> <int>    <int>      <int>    <int>    <int> <int>
 1 0     gpt3.5      1       1     1        2          1        1        2     1
 2 0     gpt4.1      1       1     1        0          0        1        4     3
 3 0     gpt4.1~     1       1     1        0          0        1        2     3
 4 0     human       1       1     1        0          0        1        4     3
 5 1     gpt3.5      1       0     0        1          0        0        0     0
 6 1     gpt4.1      1       0     1        1          0        0        0     0
 7 1     gpt4.1~     1       0     0        1          0        0        0     0
 8 1     human       1       0     1        0          0        0        0     1
 9 10    gpt3.5      0       0     0        0          1        0        0     0
10 10    gpt4.1      0       0     0        0          0        0        0     0
# i 790 more rows
# i 5,122 more variables: c_bike <int>, c_bogota <int>, c_car <int>,
#   c_citi <int>, c_concern <int>, c_contributor <int>, c_creat <int>,
#   c_creation <int>, c_daili <int>, c_day <int>, c_detriment <int>,
#   c_discuss <int>, c_drive <int>, c_due <int>, c_earli <int>, c_effect <int>,
#   c_elizabeth <int>, c_emiss <int>, c_enforc <int>, c_environ <int>,
#   c_environment <int>, c_european <int>, c_evid <int>, c_excess <int>, ...
…
